{
  "success": true,
  "totalResults": 5,
  "pages": 3,
  "currentPage": 2,
  "items": [
    {
      "id": 10,
      "title": "Capitão América: Guerra Civil",
      "description": "Depois do ataque de Ultron, os políticos decidem controlar os Vingadores, já que suas ações afetam toda a humanidade. A decisão coloca o Capitão América em rota de colisão com o Homem de Ferro.",
      "poster": "https://image.tmdb.org/t/p/w220_and_h330_face/8IoDJYGMoo4nEkjGADW2TtZRoWF.jpg",
      "poster2": "https://image.tmdb.org/t/p/w220_and_h330_face/wdwcOBMkt3zmPQuEMxB3FUtMio2.jpg"
    },
    {
      "id": 10,
      "title": "Capitão América: Guerra Civil",
      "description": "Depois do ataque de Ultron, os políticos decidem controlar os Vingadores, já que suas ações afetam toda a humanidade. A decisão coloca o Capitão América em rota de colisão com o Homem de Ferro.",
      "poster": "https://image.tmdb.org/t/p/w220_and_h330_face/8IoDJYGMoo4nEkjGADW2TtZRoWF.jpg",
      "poster2": "https://image.tmdb.org/t/p/w220_and_h330_face/wdwcOBMkt3zmPQuEMxB3FUtMio2.jpg"
    },
    {
      "id": 10,
      "title": "Capitão América: Guerra Civil",
      "description": "Depois do ataque de Ultron, os políticos decidem controlar os Vingadores, já que suas ações afetam toda a humanidade. A decisão coloca o Capitão América em rota de colisão com o Homem de Ferro.",
      "poster": "https://image.tmdb.org/t/p/w220_and_h330_face/8IoDJYGMoo4nEkjGADW2TtZRoWF.jpg",
      "poster2": "https://image.tmdb.org/t/p/w220_and_h330_face/wdwcOBMkt3zmPQuEMxB3FUtMio2.jpg"
    }
  ]
}